{
    "appLikes": {
        "count": 29
    },
    "meals": [
        {
            "id": 1,
            "name": "panino di ceci",
            "home": true,
            "time": 1
        },
        {
            "id": 2,
            "name": "tortelli di zucca",
            "home": true,
            "time": 2
        },
        {
            "name": "zucchine ripiene",
            "home": false,
            "time": 1,
            "id": 3
        },
        {
            "name": "pizza",
            "home": true,
            "time": 1,
            "id": 4
        }
    ]
}
